<?xml version="1.0" encoding="utf-8"?>
<!-- Generator: Adobe Illustrator 21.0.0, SVG Export Plug-In . SVG Version: 6.00 Build 0)  -->
<svg version="1.1" id="Слой_1" xmlns="http://www.w3.org/2000/svg" xmlns:xlink="http://www.w3.org/1999/xlink" x="0px" y="0px"
	 viewBox="0 0 32 32" style="enable-background:new 0 0 32 32;" xml:space="preserve">
<style type="text/css">
	.st0{fill:#FFFFFF;}
</style>
<path id="Chevron_Right" class="st0" d="M14.9,16.7l9,9c0.4,0.4,1,0.4,1.4,0c0.4-0.4,0.4-1,0-1.4L17,16l8.3-8.3c0.4-0.4,0.4-1,0-1.4
	c-0.4-0.4-1-0.4-1.4,0l-9,9C14.5,15.7,14.5,16.3,14.9,16.7z"/>
<path id="Chevron_Right_1_" class="st0" d="M6.4,16.7l9,9c0.4,0.4,1,0.4,1.4,0s0.4-1,0-1.4L8.5,16l8.3-8.3c0.4-0.4,0.4-1,0-1.4
	s-1-0.4-1.4,0l-9,9C6,15.7,6,16.3,6.4,16.7z"/>
</svg>
