<?xml version="1.0" encoding="utf-8"?>
<!-- Generator: Adobe Illustrator 21.0.0, SVG Export Plug-In . SVG Version: 6.00 Build 0)  -->
<svg version="1.1" id="Слой_1" xmlns="http://www.w3.org/2000/svg" xmlns:xlink="http://www.w3.org/1999/xlink" x="0px" y="0px"
	 viewBox="0 0 32 32" style="enable-background:new 0 0 32 32;" xml:space="preserve">
<style type="text/css">
	.st0{fill:#FFFFFF;}
</style>
<path id="Chevron_Right" class="st0" d="M16.6,17l9-9c0.4-0.4,0.4-1,0-1.4c-0.4-0.4-1-0.4-1.4,0l-8.3,8.3L7.5,6.6
	c-0.4-0.4-1-0.4-1.4,0s-0.4,1,0,1.4l9,9C15.6,17.4,16.1,17.4,16.6,17z"/>
<path id="Chevron_Right_1_" class="st0" d="M16.6,25.5l9-9c0.4-0.4,0.4-1,0-1.4c-0.4-0.4-1-0.4-1.4,0l-8.3,8.3l-8.3-8.3
	c-0.4-0.4-1-0.4-1.4,0s-0.4,1,0,1.4l9,9C15.6,25.9,16.1,25.9,16.6,25.5z"/>
</svg>
