<?xml version="1.0" encoding="UTF-8"?>
<svg width="28px" height="28px" viewBox="0 0 28 28" version="1.1" xmlns="http://www.w3.org/2000/svg" xmlns:xlink="http://www.w3.org/1999/xlink">
    <g id="Page-1" stroke="none" stroke-width="1" fill="none" fill-rule="evenodd" stroke-linecap="square">
        <path d="M2.5,2.5 L25.5,25.5" id="Line-3" stroke="#3B517B" stroke-width="3"></path>
        <path d="M2.5,2.5 L25.5,25.5" id="Line-3-Copy" stroke="#3B517B" stroke-width="3" transform="translate(14.000000, 14.000000) scale(-1, 1) translate(-14.000000, -14.000000) "></path>
    </g>
</svg>