<?xml version="1.0" encoding="UTF-8"?>
<svg width="21px" height="21px" viewBox="0 0 21 21" version="1.1" xmlns="http://www.w3.org/2000/svg" xmlns:xlink="http://www.w3.org/1999/xlink">
    <!-- Generator: Sketch 46.1 (44463) - http://www.bohemiancoding.com/sketch -->
    <title>Slice</title>
    <desc>Created with Sketch.</desc>
    <defs></defs>
    <g id="Page-1" stroke="none" stroke-width="1" fill="none" fill-rule="evenodd">
        <rect id="Rectangle-3" stroke="#FFFFFF" x="3.5" y="3.5" width="5" height="5"></rect>
        <rect id="Rectangle-3-Copy" stroke="#FFFFFF" x="12.5" y="3.5" width="5" height="5"></rect>
        <rect id="Rectangle-3-Copy-2" stroke="#FFFFFF" x="12.5" y="12.5" width="5" height="5"></rect>
        <rect id="Rectangle-3-Copy-3" stroke="#FFFFFF" x="3.5" y="12.5" width="5" height="5"></rect>
    </g>
</svg>