<?xml version="1.0" encoding="UTF-8"?>
<svg width="21px" height="21px" viewBox="0 0 21 21" version="1.1" xmlns="http://www.w3.org/2000/svg" xmlns:xlink="http://www.w3.org/1999/xlink">
    <!-- Generator: Sketch 46.1 (44463) - http://www.bohemiancoding.com/sketch -->
    <title>Slice</title>
    <desc>Created with Sketch.</desc>
    <defs></defs>
    <g id="Page-1" stroke="none" stroke-width="1" fill="none" fill-rule="evenodd" stroke-linecap="square">
        <path d="M2.5,10.5 L11.5,1.5" id="Line" stroke="#3C517B" stroke-width="2"></path>
        <path d="M2.5,10.5 L11.5,19.5" id="Line-2" stroke="#3C517B" stroke-width="2"></path>
        <path d="M8.5,10.5 L17.5,1.5" id="Line-Copy" stroke="#3C517B" stroke-width="2"></path>
        <path d="M8.5,10.5 L17.5,19.5" id="Line-2-Copy" stroke="#3C517B" stroke-width="2"></path>
    </g>
</svg>