<?xml version="1.0" encoding="utf-8"?>
<!-- Generator: Adobe Illustrator 21.1.0, SVG Export Plug-In . SVG Version: 6.00 Build 0)  -->
<svg version="1.1" xmlns="http://www.w3.org/2000/svg" xmlns:xlink="http://www.w3.org/1999/xlink" x="0px" y="0px" width="230px"
	 height="60px" viewBox="0 0 230 60" enable-background="new 0 0 230 60" xml:space="preserve">
<g id="Слой_1">
	<g>
		<path fill="#FFFFFF" d="M112.5,35.7c-1.9,0-3.8,0-5.8,0c-0.3,1.5-0.6,3.1-0.9,4.6c-0.2,0.7-0.3,1.5-0.5,2.2c0,0.1-0.2,0.4-0.3,0.4
			c-1.5,0-3,0-4.6,0c1.2-6.1,2.5-12,3.7-18c1.6,0,3.2,0,4.8,0c-0.4,2.1-0.9,4.3-1.3,6.4c1.9,0,3.9,0,5.8,0c0.4-2.1,0.9-4.3,1.3-6.4
			c1.6,0,3.2,0,4.8,0c-0.3,1.3-0.5,2.6-0.8,3.8c-0.9,4.6-1.9,9.2-2.8,13.8c-0.1,0.3-0.1,0.5-0.5,0.5c-1.4,0-2.8,0-4.2,0
			c-0.1,0-0.1,0-0.2-0.1C111.6,40.5,112,38.1,112.5,35.7z"/>
		<path fill="#FFFFFF" d="M115.9,23.1c0-1.7,0-3.4,0-5c-0.6-0.1-1.2-0.1-1.8-0.2c-2.8-0.6-4.4-2.5-4.6-5.4c-0.1-1.8,0.1-3.5,1.3-5
			c1.2-1.4,2.8-1.9,4.6-2.1c0.2,0,0.3,0,0.6,0c0-0.9,0-1.8,0-2.7c0-0.9,0-1.7,0-2.6c1.4,0,2.7,0,4.1,0c0,1.7,0,3.5,0,5.2
			c0.6,0.1,1.1,0.1,1.7,0.2c2.9,0.6,4.5,2.4,4.8,5.3c0.1,1.2,0,2.4-0.4,3.5c-0.9,2.4-2.8,3.4-5.2,3.6c-0.2,0-0.5,0-0.8,0
			c0,1.7,0,3.4,0,5.1C118.7,23.1,117.3,23.1,115.9,23.1z M119.8,15.1c1.7,0,2.8-1.5,2.7-3.4c-0.1-2-1.2-3.3-2.7-3.2
			C119.8,10.6,119.8,12.8,119.8,15.1z M116.1,15.1c0-2.2,0-4.5,0-6.7c-1.6,0-2.7,1.3-2.7,3.3C113.4,13.7,114.5,15.1,116.1,15.1z"/>
		<path fill="#FFFFFF" d="M138.4,5.3c0.8,0.1,1.4,0.1,2,0.3c2.6,0.6,4.3,2.5,4.4,5.3c0,0.9,0,1.8-0.2,2.7c-0.6,2.6-2.6,4.2-5.4,4.4
			c-0.3,0-0.5,0-0.8,0c0,1.7,0,3.4,0,5.1c-1.4,0-2.7,0-4.1,0c0-1.7,0-3.4,0-5c-0.7-0.1-1.3-0.1-1.9-0.2c-2.8-0.6-4.4-2.5-4.6-5.4
			c-0.1-1.4,0-2.8,0.7-4.1c1.1-2,2.9-2.7,5.1-2.9c0.2,0,0.4,0,0.6,0c0-1.8,0-3.5,0-5.3c1.4,0,2.7,0,4.1,0
			C138.4,1.8,138.4,3.5,138.4,5.3z M138.2,15.1c1.1-0.1,1.9-0.6,2.3-1.5c0.6-1.4,0.6-2.9-0.3-4.2c-0.5-0.7-1.2-1.1-2-1
			C138.2,10.6,138.2,12.8,138.2,15.1z M134.6,8.4c-1.1,0-1.8,0.5-2.2,1.3c-0.7,1.4-0.7,2.9,0.1,4.3c0.5,0.7,1.2,1.1,2.1,1.1
			C134.6,12.8,134.6,10.6,134.6,8.4z"/>
		<path fill="#FFFFFF" d="M65.2,42.9c1.2-6,2.4-12,3.7-18c4.2,0,8.4,0,12.7,0c-0.3,1.4-0.6,2.8-0.9,4.3c-2.6,0-5.2,0-7.9,0
			c-0.2,0.9-0.4,1.7-0.6,2.7c0.3,0,0.5,0,0.7,0c1.3,0,2.6,0,3.9,0.1c3.1,0.4,3.9,2.7,3.6,5.1c-0.5,3.3-2.7,5.5-6.2,5.7
			C71.3,43.1,68.3,42.9,65.2,42.9z M70.8,39.3c1,0,1.9,0.1,2.8,0c1-0.1,1.7-0.7,1.9-1.6c0.3-1.2-0.2-2-1.5-2.1c-0.7,0-1.5,0-2.2,0
			c-0.1,0-0.4,0.2-0.4,0.3C71.2,37,71,38.1,70.8,39.3z"/>
		<path fill="#FFFFFF" d="M135.4,42.9c-1.9,0-3.7,0-5.6,0c-0.1,0-0.3-0.3-0.4-0.4c-1-2.2-2.1-4.4-3.1-6.6c-0.1-0.2-0.2-0.3-0.3-0.6
			c-0.5,2.6-1.1,5.1-1.6,7.6c-1.6,0-3.2,0-4.8,0c0.2-1.1,0.4-2.1,0.6-3.1c1-4.8,2-9.6,2.9-14.4c0.1-0.4,0.2-0.5,0.6-0.5
			c1.4,0,2.9,0,4.4,0c-0.5,2.5-1,4.9-1.5,7.3c0,0,0.1,0,0.1,0c0.9-1,1.8-2.1,2.8-3.1c1.2-1.3,2.3-2.7,3.5-4c0.1-0.1,0.3-0.3,0.5-0.3
			c1.8,0,3.5,0,5.4,0c-0.3,0.4-0.6,0.7-0.9,1c-2.3,2.5-4.6,5-7,7.4c-0.4,0.4-0.4,0.6-0.1,1.1c1.4,2.7,2.9,5.5,4.3,8.2
			C135.2,42.6,135.3,42.7,135.4,42.9z"/>
		<path fill="#FFFFFF" d="M96.1,24.9c0.8,6.1,1.6,12,2.4,18.1c-0.7,0-1.4,0-2,0c-0.9,0-1.7,0-2.6,0c-0.4,0-0.5-0.1-0.5-0.5
			c-0.1-0.9-0.2-1.7-0.3-2.6c-1.3,0-2.6,0-3.9,0c-0.6,0-1.4-0.2-1.8,0.1c-0.5,0.3-0.7,1-0.9,1.6C86,42.7,85.2,43.1,84,43
			c-1.1-0.1-2.3,0-3.5,0c0.1-0.2,0.1-0.3,0.1-0.4c3.1-5.8,6.2-11.5,9.4-17.3c0.1-0.2,0.3-0.4,0.5-0.4C92.3,24.8,94.1,24.9,96.1,24.9
			z M92.9,35.8c-0.2-2.1-0.4-4.2-0.6-6.3c0,0-0.1,0-0.1,0c-1,2.1-2,4.2-3.1,6.3C90.4,35.8,91.6,35.8,92.9,35.8z"/>
		<path fill="#FFFFFF" d="M70.4,11.9c0,2,0,3.9,0,5.8c-1.5,0-3,0-4.5,0c0-5.9,0-11.8,0-17.8c0.3,0,0.5,0,0.8,0c2,0,4.1,0,6.1,0
			c3.4,0,5.6,2,5.9,5.4c0.2,2.3-0.5,4.3-2.5,5.7c-1,0.7-2.1,0.9-3.3,0.9C72.1,11.9,71.3,11.9,70.4,11.9z M70.5,3.9
			c0,1.4,0,2.7,0,4.1c0.5,0,0.9,0,1.4,0c0.2,0,0.4,0,0.6-0.1c1-0.2,1.5-0.8,1.5-1.8c0.1-1.1-0.4-1.8-1.3-2
			C71.9,3.9,71.2,3.9,70.5,3.9z"/>
		<path fill="#FFFFFF" d="M155.2,6.9c0-0.5,0-0.9,0-1.4c1.3,0,2.6,0,3.9,0c0,4.1,0,8.1,0,12.2c-1.3,0-2.6,0-3.9,0c0-0.4,0-0.8,0-1.3
			c-0.8,0.9-1.7,1.5-2.8,1.7c-2,0.3-3.6-0.3-4.8-1.9c-1.9-2.4-1.8-7,0.1-9.4C149.3,4.8,153.1,4.2,155.2,6.9z M155.4,11.5
			c0-0.2,0-0.4-0.1-0.6c-0.2-1.2-1.1-2.1-2.2-2.1c-1.2-0.1-2.1,0.6-2.4,1.8c-0.3,0.9-0.2,1.8,0.2,2.6c0.5,1,1.5,1.5,2.6,1.3
			C154.6,14.2,155.4,13.1,155.4,11.5z"/>
		<path fill="#FFFFFF" d="M88.9,6.7c0-0.4,0-0.7,0-1.2c1.3,0,2.6,0,4,0c0,4,0,8.1,0,12.2c-1.3,0-2.6,0-3.9,0c0-0.4,0-0.8,0-1.1
			c-0.1,0-0.1-0.1-0.2-0.1c-0.1,0.2-0.3,0.4-0.4,0.5c-1.8,1.7-4.8,1.6-6.6-0.3c-2.4-2.5-2.4-7.8,0-10.3c1.6-1.6,5-2,6.8,0.1
			c0.1,0.1,0.1,0.2,0.2,0.3C88.8,6.8,88.9,6.8,88.9,6.7z M84.2,11.6c0,0,0.1,0,0.1,0c0,0.3,0,0.5,0.1,0.8c0.2,1.3,1.1,2.1,2.3,2.1
			c1.1,0.1,2.1-0.7,2.4-1.9c0.2-0.8,0.2-1.6-0.1-2.3c-0.3-0.9-1-1.5-1.9-1.6c-0.9-0.1-1.7,0.2-2.2,1C84.5,10.3,84.4,11,84.2,11.6z"
			/>
		<path fill="#FFFFFF" d="M165.8,5.6c0,2.1,0,4.2,0,6.2c0,0,0.1,0,0.1,0.1c0.1-0.2,0.2-0.3,0.3-0.5c1.1-1.8,2.3-3.6,3.4-5.5
			c0.2-0.3,0.4-0.4,0.7-0.4c1.1,0,2.3,0,3.4,0c0,4.1,0,8.1,0,12.2c-1.3,0-2.7,0-4,0c0-2.1,0-4.3,0-6.4c0,0-0.1,0-0.1,0
			c-0.1,0.2-0.2,0.3-0.3,0.5c-1.1,1.9-2.2,3.7-3.3,5.6c-0.2,0.3-0.4,0.5-0.8,0.5c-1.1,0-2.2,0-3.4,0c0-4.1,0-8.2,0-12.2
			C163.1,5.6,164.4,5.6,165.8,5.6z"/>
		<path fill="#FFFFFF" d="M95.5,17.8c0-4.1,0-8.2,0-12.2c1.3,0,2.7,0,4.1,0c0,2.1,0,4.1,0,6.2c0,0,0.1,0,0.1,0.1
			c0.1-0.1,0.2-0.3,0.3-0.4c1.1-1.8,2.3-3.6,3.4-5.5c0.2-0.3,0.4-0.4,0.7-0.4c1.1,0,2.3,0,3.5,0c0,4.1,0,8.2,0,12.2
			c-1.3,0-2.6,0-4.1,0c0-2.1,0-4.3,0-6.4c-0.1,0-0.1,0-0.2,0c-0.6,1-1.2,2-1.9,3.1c-0.6,1-1.2,2-1.8,3c-0.2,0.3-0.4,0.5-0.8,0.5
			C97.8,17.8,96.7,17.8,95.5,17.8z"/>
		<path fill="#FFFFFF" d="M213.7,17.8c-1.4,0-2.7,0-4.1,0c0-1.6,0-3.2,0-4.8c-1.3,0-2.5,0-3.8,0c0,1.6,0,3.2,0,4.8
			c-1.4,0-2.7,0-4.1,0c0-4.1,0-8.1,0-12.2c1.3,0,2.7,0,4.1,0c0,1.4,0,2.8,0,4.2c1.3,0,2.5,0,3.7,0c0-1.4,0-2.8,0-4.2
			c1.4,0,2.7,0,4.1,0C213.7,9.6,213.7,13.6,213.7,17.8z"/>
		<path fill="#FFFFFF" d="M195.8,14c1.3,0,2.6,0,3.9,0c-0.3,1.2-1,2.2-1.9,2.9c-2.4,1.9-6.6,1.7-8.8-0.5c-1-1-1.5-2.3-1.6-3.6
			c-0.2-2.2,0-4.3,1.6-5.9c1.8-1.9,4.1-2.2,6.5-1.5c2.3,0.6,3.5,2.3,4,4.5c0.2,0.9,0.2,1.8,0.4,2.8c-2.9,0-5.8,0-8.6,0
			c-0.3,1.1,0.4,2.4,1.4,2.8C194.1,15.9,195.2,15.4,195.8,14z M195.8,10.2c-0.1-1.5-1-2.5-2.3-2.4c-1.3,0.1-2.2,1.1-2.1,2.4
			C192.9,10.2,194.3,10.2,195.8,10.2z"/>
		<path fill="#FFFFFF" d="M176.6,13.8c1,0.7,2.1,1.2,3.3,1.2c0.4,0,0.8,0,1.1-0.2c0.5-0.2,0.8-0.5,0.7-1.1c0-0.6-0.4-0.8-0.9-0.9
			c-0.5-0.1-1-0.1-1.4-0.1c-0.3,0-0.7,0-1.1,0c0-0.9,0-1.8,0-2.7c0.7,0,1.5,0,2.2,0c0.8,0,1.2-0.4,1.2-1c0-0.6-0.4-1-1-1.1
			c-1.2-0.2-2.2,0.2-3.2,0.7c-0.1,0.1-0.3,0.1-0.4,0.2c-0.4-0.9-0.7-1.8-1.1-2.8c2.4-1.1,4.7-1.6,7.3-0.8c1.1,0.4,2,1.2,2.1,2.4
			c0.2,1.4-0.1,2.6-1.3,3.4c0,0-0.1,0.1-0.1,0.1c0,0,0,0,0,0.1c1.4,0.5,2.2,1.5,2.2,3c0,1.6-0.8,2.6-2.2,3.3
			c-1.9,0.8-3.8,0.7-5.7,0.2c-0.9-0.3-1.7-0.7-2.6-1C175.9,15.8,176.2,14.8,176.6,13.8z"/>
		<path fill="#FFFFFF" d="M163.5,1.1c0.9-0.4,1.8-0.7,2.7-1.1c0.3,1,0.9,1.5,1.9,1.5c1,0,1.7-0.5,2-1.5c0.9,0.4,1.8,0.7,2.6,1
			c-0.4,1.5-2.1,2.7-3.9,2.9C166.1,4.1,164.3,3.1,163.5,1.1z"/>
		<path fill="#FFFFFF" d="M97.2,1.1C98.1,0.7,99,0.4,99.9,0c0.3,1,0.9,1.5,1.9,1.5c1,0,1.7-0.5,2-1.5c0.9,0.4,1.8,0.7,2.6,1
			c-0.3,1.4-2,2.7-3.8,2.9C100,4.1,98.1,3.1,97.2,1.1z"/>
	</g>
</g>
<g id="Слой_2">
	<path fill-rule="evenodd" clip-rule="evenodd" fill="#FFFFFF" d="M16.3,0.3v42.6h42.6V0.3H16.3z M57.8,41.8H17.3V1.4h40.5V41.8z"/>
	<path fill-rule="evenodd" clip-rule="evenodd" fill="#FFFFFF" d="M56.1,13.9l-1.5-1.4l-6.2,6l-1.7-1.8l0.1-3.8l-1.5,1.6v4.8
		l-2.5,2.5L55,34.1l-5,5L37.7,26.8L25.3,39.1l-5-5l12.3-12.3l-2.5-2.5v-4.8l-1.5-1.6l0.1,3.8L27,18.5l-6.2-6l-1.5,1.4
		c0.2-6.5,5.4-11.5,10.3-8.1l6.4,6.4l-1.5,1.3l3.2,3.2l3.2-3.2l-1.5-1.3l6.4-6.4C50.6,2.4,55.8,7.4,56.1,13.9L56.1,13.9z"/>
</g>
</svg>
