<?xml version="1.0" encoding="utf-8"?>
<!-- Generator: Adobe Illustrator 21.1.0, SVG Export Plug-In . SVG Version: 6.00 Build 0)  -->
<svg version="1.1" xmlns="http://www.w3.org/2000/svg" xmlns:xlink="http://www.w3.org/1999/xlink" x="0px" y="0px" width="230px"
	 height="60px" viewBox="0 0 230 60" enable-background="new 0 0 230 60" xml:space="preserve">
<g id="Слой_1">
</g>
<g id="Layer_1">
	<path fill="#FFFFFF" d="M44.865,14.253h-0.449v28.62h11.532c5.366,0,8.832-3.216,8.832-8.192c0-2.488-0.797-4.269-2.584-5.773
		c-0.652-0.552-1.377-0.937-2.133-1.245c0.582-0.288,1.138-0.627,1.629-1.069c1.319-1.23,2.013-2.944,2.013-4.965
		c0-2.088-0.774-3.814-2.368-5.279c-1.942-1.748-4.17-2.099-7.136-2.099H44.865z M53.563,19.886c0.482,0,1.38,0,2.129,0.322
		c0.811,0.346,1.315,1.255,1.315,2.379c0,0.764-0.259,1.519-0.674,1.968c-0.646,0.717-1.402,0.774-2.252,0.774c0,0-2.588,0-3.283,0
		c0-0.717,0-4.726,0-5.444C51.463,19.886,53.563,19.886,53.563,19.886z M54.357,30.821c0.835,0,1.698,0.086,2.351,0.71
		c0.545,0.514,0.896,1.484,0.896,2.47c0,0.825-0.246,1.648-0.674,2.257c-0.708,0.974-1.479,1.165-2.572,1.165c0,0-2.775,0-3.481,0
		c0-0.743,0-5.857,0-6.601C51.581,30.821,54.357,30.821,54.357,30.821z"/>
	<path fill="#FFFFFF" d="M87.835,14.253H65.092v5.498c0,0,7.232,0.014,8.033,0.015c0,0.862,0,23.166,0,23.166h6.458
		c0,0,0-22.312,0-23.173c0.785-0.002,7.035,0,7.035,0l1.861-5.506H87.835z"/>
	<path fill="#FFFFFF" d="M108.785,14.253H90.054V42.91h10.714c2.426,0,4.704-0.611,6.246-1.676c1.582-1.082,3.471-3.231,3.471-7.319
		c0-3.834-1.832-5.893-2.922-6.78c-1.165-0.94-3.329-2.06-7.033-2.06c0,0-3.305,0-4.033,0c0-0.712,0-4.598,0-5.312
		c0.833,0,10.84,0,10.84,0l1.897-5.511H108.785z M99.73,30.53c0.907,0,1.767,0.222,2.296,0.597c0.841,0.587,1.249,1.499,1.249,2.788
		c0,1.355-0.399,2.012-0.701,2.388c-0.569,0.72-1.435,1.069-2.647,1.069c0,0-2.728,0-3.431,0c0-0.748,0-6.095,0-6.842
		C97.189,30.53,99.73,30.53,99.73,30.53z"/>
	<path fill="#FFFFFF" d="M26.918,14.251H5.145c0,0,0.657,2.105,1.418,3.183c0.208,0,19.372,0,19.372,0s3.697,2.898,5.466,7.964
		H11.039c-3.514-2.865-6.144-6.738-7.526-11.147c0.175-0.54,0.37-1.07,0.582-1.59h22.813c1.779-1.237,3.547-3.183,3.547-3.183H5.691
		C6.02,8.933,6.369,8.403,6.74,7.888h25.01c0.66-0.801,1.987-3.183,1.987-3.183H9.498c0.582-0.562,1.194-1.092,1.832-1.59h23.15
		c0.635-1.52,1.087-3.183,1.087-3.183H10.42C5.615,3.353,1.992,8.364,0.355,14.251c1.624,5.822,5.213,10.873,10.054,14.325h25.093
		C35.501,28.577,35.06,20.959,26.918,14.251z"/>
	<path fill="#FFFFFF" d="M123.885,40.193c-0.474,0.749-1.597,0.787-2.04,0.772V27.992c2.054,0,2.797,2.357,2.797,7.534
		C124.643,37.333,124.469,39.26,123.885,40.193 M121.845,26.211v-9.979c0-0.117,0.009-0.231,0.02-0.348h3.02
		c1.473,0,1.916,0.538,1.916,0.538v-2.354h-4.545h-2.028h-1.306c0,0,0.411,1.173,0.411,2.164v24.321c0,0-0.114,1.807-0.465,2.1
		c0.32,0.032,0.971,0.032,1.588,0.026c0.015,0,2.935,0.304,4.25-0.497c1.326-0.81,2.986-2.071,2.986-7.876
		C127.692,28.507,125.077,26.211,121.845,26.211"/>
	<path fill="#FFFFFF" d="M133.453,41.366c-0.891,0-1.423-1.149-1.423-3.995c0-5.188,2.429-7.051,2.566-7.151v10.221
		C134.533,41.03,134.231,41.366,133.453,41.366 M136.968,39.026V25.515v-2.506v-0.006c0-0.123-0.102-3.893-3.581-3.893
		c-3.54,0-4.005,4.77-4.005,6.107c0,1.331,0.402,1.5,0.402,1.5h2.266c0,0-0.332-1.1-0.266-2.767c0.066-1.67,0.165-3.407,1.5-3.407
		c1.169,0,1.312,1.269,1.312,2.466v2.506v2.682l-0.012-0.006c-3.771,2.565-5.435,6.466-5.435,9.97c0,3.504,2.198,4.805,4.004,4.805
		c1.132,0,1.632-0.594,1.844-1.032c0.474,0.787,1.186,1.135,1.186,1.135l1.705-2.135C137.186,40.445,137.008,39.585,136.968,39.026"
		/>
	<path fill="#FFFFFF" d="M147.154,40.538V19.467h-2.366h-0.482c0,0,0.482,0.953,0.482,1.801v0.164v8.464h-2.701V19.467h-2.375
		h-0.477c0,0,0.477,0.953,0.477,1.801v0.164v19.106v0.17c0,0.842-0.477,1.799-0.477,1.799h0.477h2.375h0.478
		c0,0-0.478-0.956-0.478-1.799v-0.17v-9.306h2.701v9.306v0.17c0,0.842-0.482,1.799-0.482,1.799h0.482h2.366h0.482
		c0,0-0.482-0.956-0.482-1.799V40.538z"/>
	<path fill="#FFFFFF" d="M157.73,19.464l-1.872,0.003h-0.655c0,0,0.164,0.918-0.031,1.76l-2.881,7.425v-9.186h-2.375h-0.482
		c0,0,0.482,0.953,0.482,1.804v0.161v19.106v0.17c0,0.842-0.482,1.799-0.482,1.799h0.482h2.375h0.477c0,0-0.477-0.956-0.477-1.799
		v-0.17v-7.832l1.183-2.898l2.455,10.903l-0.006-0.003c0.14,0.983-0.108,1.799-0.108,1.799h0.513h0.092h2.218l-3.601-16.495
		L157.73,19.464z"/>
	<path fill="#FFFFFF" d="M174.713,14.068h-2.992h-0.348l-2.866,11.576l-2.872-11.576h-0.284h-2.986
		c0.348,0.296,0.468,1.992,0.468,1.992v24.28c0,0.994-0.415,2.167-0.415,2.167h3.346c0,0-0.412-1.173-0.412-2.167V22.084
		l3.156,14.941l3.214-15.275V40.34c0,0.994-0.406,2.167-0.406,2.167h3.34c0,0-0.409-1.173-0.409-2.167V16.06
		C174.245,16.06,174.368,14.364,174.713,14.068"/>
	<path fill="#FFFFFF" d="M182.089,29.522c0,2.913,0.012,10.42-0.556,11.523c-0.199,0.372-0.544,0.503-0.769,0.503
		c-0.231,0-0.576-0.131-0.775-0.503c-0.565-1.102-0.547-8.61-0.547-11.523c0-2.547-0.018-6.89,0.322-8.101
		c0.175-0.632,0.565-0.883,0.933-0.883h0.041h0.093c0.369,0,0.755,0.252,0.933,0.883C182.101,22.631,182.089,26.974,182.089,29.522
		 M180.931,19.09c-0.058,0-0.117,0.006-0.167,0.012c-0.056-0.006-0.111-0.012-0.167-0.012c-3.424,0-4.094,5.633-4.094,10.698
		c0,5.071-0.047,13.158,4.261,13.169c4.308-0.012,4.261-8.098,4.261-13.169C185.025,24.722,184.353,19.09,180.931,19.09"/>
	<path fill="#FFFFFF" d="M194.934,31.613h-2.533c0,0,0.222,0.576,0.401,1.243c0.178,0.67,0.134,3.74,0.044,4.94
		c-0.088,1.208-0.099,3.752-1.524,3.752c-0.225,0-0.576-0.131-0.766-0.503c-0.57-1.105-0.559-8.61-0.559-11.52
		c0-2.553-0.012-6.896,0.322-8.101c0.175-0.632,0.562-0.883,0.936-0.883c1.737,0,1.456,4.355,1.369,4.893
		c-0.088,0.532-0.357,1.331-0.357,1.331h2.404c0,0,0.135-0.085,0.263-0.623c0.269-1.732-0.354-7.051-3.778-7.051
		c-3.427,0-4.091,5.63-4.091,10.701c0,5.071-0.044,13.166,4.27,13.166c4.317,0,3.963-9.61,3.963-10.409
		C195.296,31.747,194.934,31.613,194.934,31.613"/>
	<path fill="#FFFFFF" d="M229.169,40.705v-0.167V19.464H226.8h-0.485c0,0,0.485,0.959,0.485,1.807v0.161v19.106v0.167
		c0,0.842-0.485,1.804-0.485,1.804h0.485h2.369h0.476C229.645,42.51,229.169,41.547,229.169,40.705"/>
	<path fill="#FFFFFF" d="M221.81,40.184c-0.421,0.684-1.456,0.722-1.86,0.705V29.022c1.881,0,2.556,2.152,2.556,6.902
		C222.507,37.573,222.355,39.333,221.81,40.184 M219.95,27.387v-7.923h-2.369h-0.479c0,0,0.479,0.959,0.479,1.804v0.167v19.106
		v0.164c0,0.845-0.479,1.804-0.479,1.804h0.479h1.965c0.892,0.02,2.252-0.038,3.021-0.503c1.211-0.737,2.734-1.898,2.734-7.206
		C225.302,29.492,222.907,27.387,219.95,27.387"/>
	<path fill="#FFFFFF" d="M212.171,40.187c-0.421,0.67-1.439,0.719-1.845,0.702V29.925c1.88,0,2.541,1.246,2.541,5.993
		C212.867,37.573,212.706,39.331,212.171,40.187 M210.326,26.322v-3.313c0-1.193,0.143-2.466,1.313-2.466
		c1.334,0,1.252,1.164,1.322,2.831c0.064,1.673-0.269,2.77-0.269,2.77l0.009-0.003c-0.289,1.026-0.915,2.152-2.301,2.152
		c-0.012,0-0.023,0.003-0.035,0.003h-0.038v-1.728V26.322z M212.955,28.773c0.901-0.603,1.875-1.729,2.024-3.784
		c0.012-0.149,0.023-0.319,0.023-0.523c0-1.334,0.07-5.355-3.469-5.355s-3.583,3.899-3.583,3.899v3.313v0.246v13.974v0.164
		c0,0.845-0.48,1.804-0.48,1.804h0.48h2.185h0.152h0.038c0.854-0.009,1.939-0.108,2.6-0.512c1.211-0.728,2.734-1.889,2.734-7.197
		C215.66,31.209,214.575,29.504,212.955,28.773"/>
	<path fill="#FFFFFF" d="M205.398,19.464l-1.875,0.003h-0.652c0,0,0.164,0.918-0.029,1.76l0.006-0.012l-2.895,7.437v-9.186h-2.369
		h-0.48c0,0,0.48,0.953,0.48,1.804v0.161v19.106v0.17c0,0.842-0.48,1.799-0.48,1.799h0.48h2.369h0.48c0,0-0.48-0.956-0.48-1.799
		v-0.17v-7.832l1.193-2.904l2.445,10.909c0.14,0.98-0.105,1.796-0.105,1.796H204h0.093h2.211l-3.597-16.495L205.398,19.464z"/>
</g>
</svg>
